lab3/src/tone_generator.vcd
$version Generated by VerilatedVcd $end
$date Tue Sep 17 10:25:54 2019
 $end
$timescale   1ns $end

 $scope module TOP $end
  $var wire  1 & clk $end
  $var wire  1 ' output_enable $end
  $var wire  1 * square_wave_out $end
  $var wire 24 ( tone_switch_period [23:0] $end
  $var wire  1 ) volume $end
  $scope module tone_generator $end
   $var wire  1 & clk $end
   $var wire 33 # counter [32:0] $end
   $var wire  1 ' output_enable $end
   $var wire  1 % pwm_out $end
   $var wire  1 * square_wave_out $end
   $var wire 24 ( tone_switch_period [23:0] $end
   $var wire  1 ) volume $end
  $upscope $end
 $upscope $end
$enddefinitions $end


#0
b000000000000000000000000000000001 #
0%
1&
1'
b000000000000000000000101 (
0)
0*
#1
b000000000000000000000000000000101 #
1%
0&
1*
#2
b000000000000000000000000000000100 #
1&
#3
b000000000000000000000000000000011 #
0&
#4
b000000000000000000000000000000010 #
1&
#5
b000000000000000000000000000000001 #
0&
#6
b000000000000000000000000000000101 #
0%
1&
0*
#7
b000000000000000000000000000000100 #
0&
#8
b000000000000000000000000000000011 #
1&
#9
b000000000000000000000000000000010 #
0&
#10
b000000000000000000000000000000001 #
1&
#11
b000000000000000000000000000000101 #
1%
0&
1*
#12
b000000000000000000000000000000100 #
1&
#13
b000000000000000000000000000000011 #
0&
#14
b000000000000000000000000000000010 #
1&
#15
b000000000000000000000000000000001 #
0&
#16
b000000000000000000000000000000101 #
0%
1&
0*
#17
b000000000000000000000000000000100 #
0&
#18
b000000000000000000000000000000011 #
1&
#19
b000000000000000000000000000000010 #
0&
#20
b000000000000000000000000000000001 #
1&
#21
b000000000000000000000000000000101 #
1%
0&
1*
#22
b000000000000000000000000000000100 #
1&
#23
b000000000000000000000000000000011 #
0&
#24
b000000000000000000000000000000010 #
1&
#25
b000000000000000000000000000000001 #
0&
#26
b000000000000000000000000000000101 #
0%
1&
0*
#27
b000000000000000000000000000000100 #
0&
#28
b000000000000000000000000000000011 #
1&
#29
b000000000000000000000000000000010 #
0&
#30
b000000000000000000000000000000001 #
1&
#31
b000000000000000000000000000000101 #
1%
0&
1*
#32
b000000000000000000000000000000100 #
1&
#33
b000000000000000000000000000000011 #
0&
#34
b000000000000000000000000000000010 #
1&
#35
b000000000000000000000000000000001 #
0&
#36
b000000000000000000000000000000101 #
0%
1&
0*
#37
b000000000000000000000000000000100 #
0&
#38
b000000000000000000000000000000011 #
1&
#39
b000000000000000000000000000000010 #
0&
#40
b000000000000000000000000000000001 #
1&
#41
b000000000000000000000000000000101 #
1%
0&
1*
#42
b000000000000000000000000000000100 #
1&
#43
b000000000000000000000000000000011 #
0&
#44
b000000000000000000000000000000010 #
1&
#45
b000000000000000000000000000000001 #
0&
#46
b000000000000000000000000000000101 #
0%
1&
0*
#47
b000000000000000000000000000000100 #
0&
#48
b000000000000000000000000000000011 #
1&
#49
b000000000000000000000000000000010 #
0&
